RUN/waveform.vcd
$date
	Tue May 28 16:32:40 2024
$end

$version
	Synopsys VCS version Q-2020.03
$end

$timescale
	1s
$end

$comment Csum: 1 a019ab126095e868 $end


$scope module ahb_top $end
$var reg 1 ! HCLK $end
$var reg 1 " HRESETn $end

$scope begin unnamed$$_vcs_4 $end
$upscope $end


$scope begin unnamed$$_vcs_0 $end
$upscope $end


$scope begin unnamed$$_vcs_1 $end
$upscope $end


$scope begin unnamed$$_vcs_2 $end
$upscope $end


$scope begin unnamed$$_vcs_3 $end
$upscope $end


$scope module ahb_pinf $end
$var reg 1 # HRESETn $end
$var reg 32 $ HADDR [31:0] $end
$var reg 32 % HWDATA [31:0] $end
$var reg 2 & HTRANS [1:0] $end
$var reg 32 ' HRDATA [31:0] $end
$var reg 2 ( HRESP [1:0] $end
$var reg 3 ) HSIZE [2:0] $end
$var reg 1 * HWRITE $end
$var reg 1 + HREADYin $end
$var reg 1 , HREADYout $end
$var reg 1 - HCLK $end
$var reg 3 . HBURST [2:0] $end
$var reg 1 / HREADY $end
$upscope $end


$scope module apb_pinf $end
$var reg 32 0 PADDR [31:0] $end
$var reg 32 1 PWDATA [31:0] $end
$var reg 32 2 PRDATA [31:0] $end
$var reg 3 3 PSEL [2:0] $end
$var reg 1 4 PWRITE $end
$var reg 1 5 PENABLE $end
$var reg 1 6 PSLVERR $end
$var reg 1 7 HCLK $end
$var reg 1 8 HRESETn $end
$upscope $end


$scope module ahb_apb_bridge_RTL $end
$var wire 32 9 HADDR [31:0] $end
$var wire 32 : HWDATA [31:0] $end
$var wire 32 ; PRDATA [31:0] $end
$var wire 2 < HTRANS [1:0] $end
$var wire 1 = HWRITE $end
$var wire 1 > HRESETn $end
$var wire 1 ? HCLK $end
$var wire 1 @ HREADYin $end
$var wire 3 A HSIZE [2:0] $end
$var reg 32 B PADDR [31:0] $end
$var reg 32 C PWDATA [31:0] $end
$var reg 32 D HRDATA [31:0] $end
$var reg 2 E HRESP [1:0] $end
$var reg 1 F PWRITE $end
$var reg 1 G PENABLE $end
$var reg 1 H HREADYout $end
$var reg 3 I PSEL [2:0] $end
$var wire 1 J PSLVERR $end
$var reg 32 K HADDR_1 [31:0] $end
$var reg 32 L HADDR_2 [31:0] $end
$var reg 32 M HADDR_3 [31:0] $end
$var reg 32 N HWDATA_1 [31:0] $end
$var reg 32 O HWDATA_2 [31:0] $end
$var reg 32 P HWDATA_3 [31:0] $end
$var reg 1 Q HWRITEreg $end
$var reg 1 R w_reg $end
$var reg 1 S valid $end
$var reg 3 T TEMP_SEL [2:0] $end
$var reg 3 U STATE [2:0] $end
$var reg 3 V NX_STATE [2:0] $end
$var reg 1 W tmp $end
$var reg 1 X error_addr $end
$var reg 1 Y error_read $end
$var reg 1 Z error_write $end
$upscope $end


$scope module mem_t $end
$var wire 1 ? clk $end
$var wire 1 > rst $end
$var wire 32 [ din [31:0] $end
$var wire 32 \ addr [31:0] $end
$var wire 1 ] valid $end
$var wire 1 ^ wr_rd $end
$var reg 32 _ dout [31:0] $end

$scope begin unnamed$$_vcs_0 $end

$scope begin unnamed$$_0 $end
$upscope $end

$upscope $end

$upscope $end

$upscope $end

$enddefinitions $end

#0
$dumpvars
0!
0"
bxxx .
bxxx )
b00 (
bxxxxxxxxxxxxxxxxxxxxxxxxxxxxxxxx '
bxx &
bxxxxxxxxxxxxxxxxxxxxxxxxxxxxxxxx %
bxxxxxxxxxxxxxxxxxxxxxxxxxxxxxxxx $
b000 3
bxxxxxxxxxxxxxxxxxxxxxxxxxxxxxxxx 2
bxxxxxxxxxxxxxxxxxxxxxxxxxxxxxxxx 1
bxxxxxxxxxxxxxxxxxxxxxxxxxxxxxxxx 0
1H
0Q
0G
0F
0X
0Y
0Z
xW
0S
xR
b00000000000000000000000000000000 K
b00000000000000000000000000000000 L
b00000000000000000000000000000000 M
bxxxxxxxxxxxxxxxxxxxxxxxxxxxxxxxx D
b00 E
b00000000000000000000000000000000 N
b00000000000000000000000000000000 O
b00000000000000000000000000000000 P
b000 V
bxxxxxxxxxxxxxxxxxxxxxxxxxxxxxxxx B
b000 I
bxxxxxxxxxxxxxxxxxxxxxxxxxxxxxxxx C
b000 U
bxxx T
bxxxxxxxxxxxxxxxxxxxxxxxxxxxxxxxx _
0#
08
0-
07
0?
0>
bxxxxxxxxxxxxxxxxxxxxxxxxxxxxxxxx 9
bxxxxxxxxxxxxxxxxxxxxxxxxxxxxxxxx :
bxx <
bxxx A
bxxxxxxxxxxxxxxxxxxxxxxxxxxxxxxxx ;
bxxxxxxxxxxxxxxxxxxxxxxxxxxxxxxxx [
bxxxxxxxxxxxxxxxxxxxxxxxxxxxxxxxx \
x=
1@
0J
0]
0^
1/
1+
1,
x*
05
06
04
$end
#5
1!
1?
1-
17
#6
b00 &
b000 .
b00 <
#10
1"
1>
1#
18
0!
0?
0-
07
1X
0X
b00 E
xQ
#15
1!
1?
1-
17
bxxxxxxxxxxxxxxxxxxxxxxxxxxxxxxxx K
bxxxxxxxxxxxxxxxxxxxxxxxxxxxxxxxx N
#16
b010 )
b011 .
1*
1=
b01000000000000000010110110101000 $
b10 &
1Q
b010 A
b01000000000000000010110110101000 9
b10 <
1S
b100 T
b001 V
#20
0!
0?
0-
07
#25
1!
1?
1-
17
b01000000000000000010110110101000 K
bxxxxxxxxxxxxxxxxxxxxxxxxxxxxxxxx L
bxxxxxxxxxxxxxxxxxxxxxxxxxxxxxxxx O
b001 U
b100 V
1W
#26
b01000000011111011101110011101001 %
b01000000000000000010110110101100 $
b11 &
b01000000011111011101110011101001 :
b01000000000000000010110110101100 9
b11 <
#30
0!
0?
0-
07
#35
1!
1?
1-
17
b01000000000000000010110110101100 K
b01000000000000000010110110101000 L
bxxxxxxxxxxxxxxxxxxxxxxxxxxxxxxxx M
b01000000011111011101110011101001 N
bxxxxxxxxxxxxxxxxxxxxxxxxxxxxxxxx P
b100 U
b111 V
b100 I
b100 3
0H
0,
1F
14
1^
b01000000011111011101110011101001 C
b01000000011111011101110011101001 1
b01000000011111011101110011101001 [
b01000000000000000010110110101000 B
b01000000000000000010110110101000 0
b01000000000000000010110110101000 \
#36
b01000000000000000010110110110000 $
b01000000000000000010110110110000 9
#40
0!
0?
0-
07
#45
1!
1?
1-
17
b01000000000000000010110110110000 K
b01000000000000000010110110101100 L
b01000000000000000010110110101000 M
b01000000011111011101110011101001 O
b111 U
b100 V
1G
15
1]
1H
1,
0W
#46
b11011111111011000011011010100011 %
b11011111111011000011011010100011 :
#50
0!
0?
0-
07
#55
1!
1?
1-
17
b01000000000000000010110110110000 L
b01000000000000000010110110101100 M
b11011111111011000011011010100011 N
b01000000011111011101110011101001 P
b100 U
b111 V
0G
05
0]
0H
0,
b11011111111011000011011010100011 C
b11011111111011000011011010100011 1
b11011111111011000011011010100011 [
b01000000000000000010110110101100 B
b01000000000000000010110110101100 0
b01000000000000000010110110101100 \
#56
b01000000000000000001111011000100 $
b10 &
b01000000000000000001111011000100 9
b10 <
b010 T
b010 I
b010 3
#60
0!
0?
0-
07
#65
1!
1?
1-
17
b01000000000000000001111011000100 K
b01000000000000000010110110110000 M
b11011111111011000011011010100011 O
b111 U
b100 V
1G
15
1]
1H
1,
#66
b11111100000001010001110110101100 %
b11111100000001010001110110101100 :
#70
0!
0?
0-
07
#75
1!
1?
1-
17
b01000000000000000001111011000100 L
b11111100000001010001110110101100 N
b11011111111011000011011010100011 P
b100 U
b111 V
0G
05
0]
0H
0,
b11111100000001010001110110101100 C
b11111100000001010001110110101100 1
b11111100000001010001110110101100 [
b01000000000000000010110110110000 B
b01000000000000000010110110110000 0
b01000000000000000010110110110000 \
#76
b01000000000000000001111011001100 $
b11 &
b01000000000000000001111011001100 9
b11 <
#80
0!
0?
0-
07
#85
1!
1?
1-
17
b01000000000000000001111011001100 K
b01000000000000000001111011000100 M
b11111100000001010001110110101100 O
b111 U
b100 V
1G
15
1]
1H
1,
#86
b00111100010101100111111101001100 %
b00111100010101100111111101001100 :
#90
0!
0?
0-
07
#95
1!
1?
1-
17
b01000000000000000001111011001100 L
b00111100010101100111111101001100 N
b11111100000001010001110110101100 P
b100 U
b111 V
0G
05
0]
0H
0,
b00111100010101100111111101001100 C
b00111100010101100111111101001100 1
b00111100010101100111111101001100 [
b01000000000000000001111011000100 B
b01000000000000000001111011000100 0
b01000000000000000001111011000100 \
#96
b01000000000000000010110110100100 $
b10 &
0*
0=
0Q
b01000000000000000010110110100100 9
b10 <
b100 T
b100 I
b100 3
#100
0!
0?
0-
07
#105
1!
1?
1-
17
b01000000000000000010110110100100 K
b01000000000000000001111011001100 M
b00111100010101100111111101001100 O
b111 U
b010 V
1G
15
1]
1H
1,
#106
b10010110011110100000000101000100 %
b10010110011110100000000101000100 :
#110
0!
0?
0-
07
#115
1!
1?
1-
17
b01000000000000000010110110100100 L
b10010110011110100000000101000100 N
b00111100010101100111111101001100 P
b010 U
b101 V
0G
05
0]
0H
0,
0F
04
0^
b01000000000000000010110110100100 B
b01000000000000000010110110100100 0
b01000000000000000010110110100100 \
#116
b01000000000000000010110110101100 $
b11 &
b01000000000000000010110110101100 9
b11 <
#120
0!
0?
0-
07
#125
1!
1?
1-
17
b01000000000000000010110110101100 K
b01000000000000000010110110100100 M
b10010110011110100000000101000100 O
b101 U
b010 V
1G
15
1]
1H
1,
#126
b00001100100101010011000010100011 %
b00001100100101010011000010100011 :
#130
0!
0?
0-
07
#135
1!
1?
1-
17
b11111111111111111111111111111111 _
b11111111111111111111111111111111 2
b11111111111111111111111111111111 ;
b11111111111111111111111111111111 D
b11111111111111111111111111111111 '
b01000000000000000010110110101100 L
b00001100100101010011000010100011 N
b10010110011110100000000101000100 P
b010 U
b101 V
0G
05
0]
0H
0,
b01000000000000000010110110101100 B
b01000000000000000010110110101100 0
b01000000000000000010110110101100 \
#136
b01000000000000000001011000111000 $
b10 &
b01000000000000000001011000111000 9
b10 <
b010 T
b010 I
b010 3
#140
0!
0?
0-
07
#145
1!
1?
1-
17
b01000000000000000001011000111000 K
b01000000000000000010110110101100 M
b00001100100101010011000010100011 O
b101 U
b010 V
1G
15
1]
1H
1,
#146
b11111111101011110110001001001000 %
b11111111101011110110001001001000 :
#150
0!
0?
0-
07
#155
1!
1?
1-
17
b11011111111011000011011010100011 _
b11011111111011000011011010100011 2
b11011111111011000011011010100011 ;
b11011111111011000011011010100011 D
b11011111111011000011011010100011 '
b01000000000000000001011000111000 L
b11111111101011110110001001001000 N
b00001100100101010011000010100011 P
b010 U
b101 V
0G
05
0]
0H
0,
b01000000000000000001011000111000 B
b01000000000000000001011000111000 0
b01000000000000000001011000111000 \
#156
b01000000000000000001011001000000 $
b11 &
b01000000000000000001011001000000 9
b11 <
#160
0!
0?
0-
07
#165
1!
1?
1-
17
b01000000000000000001011001000000 K
b01000000000000000001011000111000 M
b11111111101011110110001001001000 O
b101 U
b010 V
1G
15
1]
1H
1,
#166
b00010000100110010000001011101000 %
b00010000100110010000001011101000 :
#170
0!
0?
0-
07
#175
1!
1?
1-
17
b11111111111111111111111111111111 _
b11111111111111111111111111111111 2
b11111111111111111111111111111111 ;
b11111111111111111111111111111111 D
b11111111111111111111111111111111 '
b01000000000000000001011001000000 L
b00010000100110010000001011101000 N
b11111111101011110110001001001000 P
b010 U
b101 V
0G
05
0]
0H
0,
b01000000000000000001011001000000 B
b01000000000000000001011001000000 0
b01000000000000000001011001000000 \
#176
b01000000000000000001011001000100 $
b01000000000000000001011001000100 9
#180
0!
0?
0-
07
#185
1!
1?
1-
17
b01000000000000000001011001000100 K
b01000000000000000001011001000000 M
b00010000100110010000001011101000 O
b101 U
b010 V
1G
15
1]
1H
1,
#190
0!
0?
0-
07
#195
1!
1?
1-
17
b01000000000000000001011001000100 L
b00010000100110010000001011101000 P
b010 U
b101 V
0G
05
0]
0H
0,
b01000000000000000001011001000100 B
b01000000000000000001011001000100 0
b01000000000000000001011001000100 \
#200
0!
0?
0-
07
#205
1!
1?
1-
17
b01000000000000000001011001000100 M
b101 U
b010 V
1G
15
1]
1H
1,
#210
0!
0?
0-
07
#215
1!
1?
1-
17
b010 U
b101 V
0G
05
0]
0H
0,
#220
0!
0?
0-
07
#225
1!
1?
1-
17
b101 U
b010 V
1G
15
1]
1H
1,
#230
0!
0?
0-
07
#235
1!
1?
1-
17
b010 U
b101 V
0G
05
0]
0H
0,
#240
0!
0?
0-
07
#245
1!
1?
1-
17
b101 U
b010 V
1G
15
1]
1H
1,
#250
0!
0?
0-
07
#255
1!
1?
1-
17
b010 U
b101 V
0G
05
0]
0H
0,
#260
0!
0?
0-
07
#265
1!
1?
1-
17
b101 U
b010 V
1G
15
1]
1H
1,
#270
0!
0?
0-
07
#275
1!
1?
1-
17
b010 U
b101 V
0G
05
0]
0H
0,
#280
0!
0?
0-
07
#285
1!
1?
1-
17
b101 U
b010 V
1G
15
1]
1H
1,
#290
0!
0?
0-
07
#295
1!
1?
1-
17
b010 U
b101 V
0G
05
0]
0H
0,
#300
0!
0?
0-
07
#305
1!
1?
1-
17
b101 U
b010 V
1G
15
1]
1H
1,
#310
0!
0?
0-
07
#315
1!
1?
1-
17
b010 U
b101 V
0G
05
0]
0H
0,
#320
0!
0?
0-
07
#325
1!
1?
1-
17
b101 U
b010 V
1G
15
1]
1H
1,
#330
0!
0?
0-
07
#335
1!
1?
1-
17
b010 U
b101 V
0G
05
0]
0H
0,
#340
0!
0?
0-
07
#345
1!
1?
1-
17
b101 U
b010 V
1G
15
1]
1H
1,
